<?xml version="1.0" standalone="no"?>
<!DOCTYPE svg PUBLIC "-//W3C//DTD SVG 20010904//EN"
 "http://www.w3.org/TR/2001/REC-SVG-20010904/DTD/svg10.dtd">
<svg version="1.0" xmlns="http://www.w3.org/2000/svg"
 width="700.000000pt" height="700.000000pt" viewBox="0 0 700.000000 700.000000"
 preserveAspectRatio="xMidYMid meet">
<metadata>
Created by potrace 1.11, written by Peter Selinger 2001-2013
</metadata>
<g transform="translate(0.000000,700.000000) scale(0.100000,-0.100000)"
fill="#000000" stroke="none">
<path d="M5378 6886 c-1 -2 -43 -6 -93 -9 -49 -4 -100 -8 -111 -11 -12 -2 -37
-7 -55 -10 -216 -34 -434 -131 -639 -285 -72 -54 -1944 -1914 -1935 -1923 2
-2 -62 -70 -143 -150 -81 -81 -165 -165 -186 -187 l-39 -40 236 -235 c130
-130 238 -236 241 -236 14 0 376 372 376 386 0 17 1749 1770 1848 1852 109 90
242 148 387 169 309 45 620 -96 790 -357 57 -87 84 -148 111 -250 20 -72 23
-104 20 -210 -4 -133 -18 -204 -62 -305 -63 -142 -86 -168 -1034 -1119 -1124
-1128 -1306 -1314 -1297 -1323 4 -5 112 -113 239 -241 l232 -232 189 189 c104
105 186 194 183 200 -4 5 414 429 927 943 559 559 957 965 993 1013 143 189
226 373 275 606 32 155 32 426 0 570 -6 24 -12 58 -15 75 -20 115 -125 345
-218 483 -247 362 -663 599 -1102 627 -50 3 -96 7 -103 9 -6 2 -13 2 -15 1z"/>
<path d="M2101 6058 c-57 -134 -117 -271 -133 -306 -15 -34 -28 -65 -28 -67 0
-2 -11 -28 -24 -57 -28 -61 -213 -489 -227 -524 -7 -21 -5 -24 14 -25 39 -2
108 -6 232 -14 66 -4 125 -8 132 -8 13 0 11 -59 -12 -337 -6 -75 -15 -182 -20
-260 -3 -36 -7 -96 -10 -135 -3 -38 -4 -67 -2 -65 2 3 39 73 82 155 43 83 100
193 128 245 93 178 154 295 217 415 34 66 72 137 83 158 18 33 19 39 7 47 -8
6 -22 10 -30 10 -8 1 -100 27 -205 58 l-190 58 -1 48 c0 26 3 68 7 94 4 26 10
76 13 112 4 36 9 76 11 90 3 14 7 50 10 80 3 30 8 69 10 85 5 31 12 95 20 175
3 25 7 59 10 75 8 50 17 135 13 135 -2 0 -50 -109 -107 -242z"/>
<path d="M1295 4323 c-315 -57 -466 -133 -663 -332 -135 -135 -211 -250 -271
-408 -70 -183 -85 -387 -46 -616 11 -62 76 -242 117 -322 56 -111 129 -222
222 -340 106 -135 1515 -1544 1651 -1651 439 -346 865 -444 1278 -294 152 56
281 142 415 277 97 99 149 168 202 266 56 104 94 216 117 347 9 51 8 276 -1
340 -15 106 -85 312 -136 405 -61 109 -79 139 -131 216 -32 47 -95 128 -138
181 -117 139 -1423 1442 -1544 1540 -334 268 -646 398 -952 395 -55 0 -109 -2
-120 -4z"/>
<path d="M5125 2507 c-66 -35 -183 -96 -260 -136 -194 -102 -321 -169 -450
-236 -60 -32 -122 -65 -137 -72 -40 -21 -35 -25 25 -19 80 9 156 16 217 21 98
8 184 16 225 20 22 2 72 7 110 10 39 3 98 8 133 11 l62 6 1 -78 c1 -122 8
-326 11 -330 3 -2 207 83 303 125 11 5 40 18 65 29 176 79 819 352 828 352 6
0 14 5 17 10 6 11 -9 10 -125 -5 -39 -5 -107 -12 -177 -20 -27 -3 -64 -8 -83
-10 -19 -3 -57 -7 -85 -10 -27 -3 -61 -8 -75 -10 -14 -3 -53 -7 -88 -10 -35
-4 -72 -8 -82 -10 -10 -2 -50 -7 -87 -10 -37 -4 -71 -9 -75 -11 -3 -2 -13 17
-22 43 -17 52 -92 305 -108 366 -6 20 -13 37 -17 37 -3 0 -60 -29 -126 -63z"/>
</g>
</svg>
